5 0.423618 0.054963 0.145464 0.050694
5 0.861314 0.085912 0.076903 0.033796
2 0.106621 0.148702 0.082117 0.043045
2 0.466111 0.379047 0.109750 0.050516
1 0.230188 0.440768 0.329249 0.679829
1 0.583160 0.442547 0.321168 0.683565