2 0.612533 0.040950 0.312010 0.029073
2 0.291123 0.235597 0.127676 0.060450
2 0.674413 0.385924 0.109922 0.060450
2 0.676762 0.722921 0.102611 0.062578
2 0.300783 0.547421 0.155875 0.068605
1 0.431332 0.435207 0.371540 0.723453
1 0.801044 0.434675 0.345692 0.721681