6 0.905401 0.123690 0.111825 0.056413
6 0.048759 0.346293 0.068905 0.048980
6 0.273285 0.862779 0.397956 0.184296
1 0.243504 0.421384 0.359416 0.690299
1 0.668029 0.425577 0.383942 0.704974
1 0.362628 0.361159 0.109197 0.022108
0 0.920000 0.050124 0.053431 0.025157
3 0.271241 0.494378 0.273577 0.018487
3 0.398540 0.621689 0.051387 0.016581
3 0.348613 0.755479 0.136350 0.021917
3 0.516204 0.257671 0.169635 0.350867
3 0.313577 0.234610 0.204672 0.018487
2 0.731679 0.461025 0.036788 0.020011
2 0.577226 0.587574 0.044088 0.022870
2 0.745109 0.691633 0.031241 0.022680
2 0.104526 0.254622 0.037664 0.020964
2 0.102774 0.379646 0.042920 0.022108
2 0.094891 0.506385 0.044964 0.019630
2 0.098978 0.634458 0.039416 0.023442
12 0.254015 0.109205 0.353869 0.032209
12 0.256642 0.160663 0.340146 0.028778
12 0.254891 0.208310 0.338394 0.032399
12 0.722044 0.123309 0.239416 0.045359
12 0.717080 0.177435 0.243212 0.038308
12 0.661606 0.227559 0.341314 0.040023
12 0.662482 0.273871 0.355036 0.032209
12 0.659270 0.322089 0.356496 0.032971
12 0.668613 0.373166 0.369635 0.036021
12 0.664818 0.420050 0.363212 0.034496
12 0.592409 0.466362 0.233869 0.036592