1 0.238466 0.418166 0.148640 0.623968
1 0.399022 0.422613 0.156737 0.628414
1 0.609227 0.426000 0.145891 0.634978
1 0.761534 0.428329 0.149710 0.634554
6 0.135503 0.238196 0.050107 0.011645
6 0.523831 0.145247 0.024137 0.019903
6 0.517874 0.260428 0.010846 0.010586
6 0.520929 0.403557 0.029789 0.028160
6 0.513902 0.513868 0.015735 0.010375
6 0.873205 0.190769 0.034983 0.012704
6 0.879621 0.247300 0.057287 0.025619