1 0.271167 0.405184 0.388129 0.653707
1 0.665406 0.353917 0.409951 0.611016
0 0.892930 0.048027 0.035496 0.015437
3 0.350015 0.306080 0.185045 0.018296
3 0.311027 0.434153 0.278441 0.019630
3 0.716322 0.515533 0.284550 0.018296
3 0.784114 0.640557 0.142275 0.014675
3 0.411405 0.724223 0.115508 0.019630
3 0.326447 0.178388 0.229852 0.023823
3 0.533896 0.260530 0.151004 0.376977
12 0.270294 0.099295 0.355252 0.035068
12 0.271167 0.150753 0.358452 0.032971
12 0.731743 0.101201 0.258947 0.038498
12 0.727960 0.148275 0.248182 0.037926
12 0.675298 0.203735 0.352051 0.036402
12 0.675589 0.252335 0.359325 0.037164
12 0.679372 0.299219 0.369217 0.032399
12 0.670352 0.345912 0.356997 0.036402
12 0.673553 0.396036 0.372127 0.037164
12 0.672389 0.446541 0.359325 0.035830
12 0.678208 0.491710 0.376491 0.036402
2 0.107652 0.191157 0.057899 0.020964
2 0.107070 0.323042 0.052662 0.025157
2 0.105033 0.450353 0.043934 0.026682
2 0.096887 0.559177 0.045097 0.022489
2 0.104452 0.667238 0.051498 0.023061
2 0.506837 0.528492 0.044807 0.021917