1 0.338896 0.471437 0.231936 0.782458
1 0.584866 0.476919 0.219040 0.773947
6 0.802769 0.475476 0.201972 0.773947
2 0.264555 0.271062 0.065807 0.041402
2 0.500664 0.259810 0.057652 0.046451
2 0.728617 0.497980 0.063531 0.047461
2 0.507491 0.839008 0.069221 0.051789