5 0.427936 0.042595 0.382684 0.039060
2 0.746273 0.060976 0.003662 0.002474
2 0.444154 0.298339 0.119016 0.051255
0 0.879152 0.079357 0.053100 0.019088
1 0.578342 0.443620 0.370128 0.691410
1 0.196704 0.439024 0.323045 0.689820