5 0.566896 0.052050 0.317028 0.030481
2 0.295875 0.260606 0.109730 0.059180
2 0.665785 0.187166 0.102856 0.050802
2 0.668165 0.682353 0.116076 0.114617
1 0.420941 0.434938 0.340296 0.702139
1 0.785828 0.435472 0.354045 0.678966