2 0.155990 0.207589 0.049007 0.054315
1 0.299808 0.155506 0.231262 0.039062
1 0.328315 0.515625 0.356182 0.672247
1 0.728700 0.446057 0.352018 0.612351
1 0.721653 0.805432 0.337604 0.079241
0 0.926650 0.094122 0.031070 0.029390