1 0.253001 0.406020 0.148523 0.623925
1 0.405073 0.417537 0.133806 0.625921
1 0.576245 0.414312 0.157812 0.607340
1 0.736144 0.412316 0.153742 0.615786
6 0.161048 0.298833 0.032982 0.148188
6 0.159169 0.422912 0.036635 0.024263
6 0.329089 0.168151 0.033191 0.089220
6 0.323244 0.430283 0.035487 0.316646
6 0.157395 0.660012 0.043941 0.078163
6 0.641478 0.555897 0.032356 0.022727
6 0.807536 0.099509 0.032878 0.024263
5 0.288696 0.067107 0.087360 0.037316
5 0.629684 0.071253 0.067634 0.037316
4 0.643879 0.767813 0.056362 0.029023