1 0.324532 0.491011 0.609261 0.862559
1 0.730640 0.865425 0.457143 0.106696
6 0.812611 0.079338 0.202759 0.032439
6 0.843153 0.254039 0.263251 0.095232
6 0.826207 0.378452 0.209261 0.043382
6 0.810049 0.519411 0.197635 0.139135
6 0.808276 0.666232 0.205517 0.053804
6 0.834089 0.752736 0.245123 0.078296