0 0.853493 0.074173 0.047706 0.015831
5 0.396767 0.039488 0.403285 0.032373
1 0.215589 0.429207 0.367310 0.685699
1 0.563087 0.446816 0.354536 0.700996
2 0.077946 0.345962 0.106621 0.060477
2 0.446559 0.752046 0.109489 0.079687