5 0.570333 0.042781 0.280539 0.029947
2 0.302750 0.368806 0.104971 0.056150
2 0.670016 0.164349 0.087784 0.049020
2 0.668694 0.642781 0.095188 0.047415
1 0.418826 0.426560 0.332628 0.691444
1 0.783184 0.430481 0.340296 0.684670