5 0.335259 0.044290 0.366763 0.042512
0 0.855343 0.077552 0.043056 0.015831
1 0.567866 0.421736 0.332633 0.683920
1 0.193752 0.424226 0.344972 0.682497
2 0.069835 0.285663 0.097663 0.056386
2 0.456025 0.655816 0.121029 0.073639