1 0.239712 0.464368 0.218471 0.754328
1 0.459131 0.475909 0.227385 0.761108
1 0.693533 0.473745 0.234212 0.765003
2 0.173336 0.810012 0.052532 0.024091
2 0.399583 0.377236 0.066755 0.046740
2 0.628295 0.485863 0.079082 0.039960
0 0.884316 0.074005 0.040394 0.032025