5 0.376627 0.039236 0.341749 0.032344
0 0.855284 0.077589 0.043467 0.015730
1 0.193649 0.443620 0.326393 0.698303
1 0.561426 0.441145 0.366216 0.697596
2 0.065591 0.432838 0.100989 0.051432
2 0.070536 0.733651 0.096564 0.063627
2 0.427902 0.752033 0.112962 0.069636