1 0.209891 0.399430 0.393905 0.763118
1 0.618171 0.451331 0.379816 0.695627
0 0.864290 0.048099 0.066705 0.029468
6 0.849914 0.346198 0.103795 0.038973
6 0.876366 0.697529 0.171650 0.024525
6 0.924094 0.366540 0.072168 0.038593
3 0.221104 0.614259 0.298735 0.018061
3 0.716216 0.671103 0.183726 0.015399
3 0.745543 0.339354 0.109546 0.018061
3 0.712478 0.289544 0.175676 0.014259
3 0.772858 0.205894 0.101495 0.016730
3 0.772858 0.119772 0.117021 0.023384
3 0.474986 0.389354 0.185451 0.117490
3 0.212766 0.196578 0.408281 0.292966
2 0.467223 0.141065 0.037090 0.024525
2 0.458597 0.221863 0.039103 0.023194
2 0.464635 0.299240 0.039103 0.028327
2 0.441346 0.687262 0.035078 0.019202
2 0.052329 0.706654 0.035078 0.019582
2 0.053191 0.624335 0.031340 0.017300
12 0.213053 0.396198 0.336113 0.035932
12 0.206440 0.446008 0.334388 0.038213
12 0.208453 0.494106 0.340713 0.039354
12 0.207016 0.541445 0.345601 0.040304
12 0.207016 0.586502 0.347326 0.035932
12 0.670788 0.361407 0.250144 0.035361
12 0.676251 0.409886 0.248706 0.034411
12 0.622197 0.457985 0.377228 0.037833
12 0.608396 0.506654 0.369753 0.039924
12 0.607533 0.551141 0.368890 0.039354
12 0.606095 0.597338 0.367740 0.039734
12 0.599195 0.646388 0.370615 0.048099
12 0.216504 0.354183 0.334675 0.034221