2 0.303279 0.494296 0.116869 0.079679
2 0.291116 0.682709 0.123215 0.113191
2 0.660233 0.335829 0.134056 0.134403
5 0.615283 0.042781 0.351930 0.026203
1 0.413802 0.424955 0.336594 0.692870
1 0.786356 0.427629 0.330249 0.687701