1 0.266648 0.400269 0.334381 0.736671
1 0.597314 0.418489 0.236925 0.684695
6 0.456416 0.262562 0.031152 0.022440
6 0.408117 0.334292 0.156045 0.018412
6 0.382395 0.353280 0.036868 0.014193
6 0.407545 0.450901 0.064876 0.024933
6 0.835667 0.329306 0.140897 0.025700
6 0.832809 0.376103 0.123464 0.027618
6 0.450129 0.697929 0.091455 0.016686
6 0.824807 0.652282 0.127751 0.021864
6 0.561303 0.815689 0.481566 0.036249
6 0.832809 0.721327 0.142898 0.022440
6 0.306659 0.158995 0.027151 0.018220
6 0.330094 0.219793 0.032867 0.017453
6 0.319806 0.439778 0.123464 0.017261
6 0.334381 0.538934 0.040869 0.016110
6 0.330666 0.285961 0.024007 0.013617
6 0.334381 0.252589 0.019148 0.011316
0 0.722206 0.053318 0.180909 0.054661
0 0.895113 0.058496 0.039154 0.025508
2 0.126036 0.269083 0.039726 0.019755
2 0.129751 0.285961 0.035439 0.017261
2 0.120320 0.299962 0.036868 0.015152
2 0.124035 0.319524 0.046871 0.018220
2 0.117462 0.362869 0.034010 0.026659
2 0.172621 0.347142 0.049728 0.018220
2 0.121177 0.378213 0.032581 0.021097
2 0.121177 0.396241 0.046871 0.018987
2 0.115462 0.411009 0.046871 0.022056
2 0.123178 0.427695 0.028294 0.017069
2 0.122606 0.442271 0.024007 0.021097
2 0.119748 0.458189 0.029723 0.018987
2 0.120320 0.477369 0.039726 0.017261
2 0.121177 0.493096 0.035439 0.016110
2 0.124607 0.521097 0.025436 0.018987
2 0.122321 0.551784 0.033724 0.026851
2 0.122606 0.569237 0.038297 0.018412
2 0.123464 0.585347 0.036296 0.016686
2 0.117748 0.601458 0.040869 0.013809
2 0.124035 0.616034 0.036868 0.020330
2 0.125179 0.634446 0.034581 0.013042
2 0.123464 0.645570 0.038011 0.018987
2 0.126893 0.665132 0.031152 0.015535
2 0.118034 0.681626 0.032009 0.014960
2 0.125179 0.698504 0.033724 0.017837
2 0.116891 0.713464 0.030294 0.015535
2 0.119463 0.728999 0.033724 0.016686
2 0.118605 0.750479 0.035724 0.018028
2 0.506430 0.746260 0.026579 0.018987
2 0.506430 0.728423 0.037439 0.018028
2 0.511861 0.713847 0.035439 0.019755
2 0.511861 0.681243 0.028294 0.015535
2 0.512432 0.663982 0.039726 0.020138
2 0.507002 0.648830 0.031152 0.020905
2 0.505287 0.631569 0.030866 0.020905
2 0.506145 0.616034 0.032867 0.020905
2 0.507574 0.599348 0.037153 0.020905
2 0.506145 0.585923 0.038297 0.017261
2 0.505287 0.569620 0.041440 0.022056
2 0.503287 0.553510 0.030294 0.018604
2 0.505573 0.541619 0.035724 0.023782
2 0.512718 0.525508 0.040869 0.015919
2 0.511003 0.508055 0.038011 0.015919
2 0.507288 0.492904 0.040297 0.018412
2 0.509003 0.478328 0.033152 0.018220
2 0.511003 0.464327 0.035724 0.019946
2 0.512718 0.446490 0.027151 0.018220
2 0.509288 0.431339 0.038868 0.020713
2 0.511575 0.415804 0.029437 0.021481
2 0.510146 0.397775 0.033152 0.017837
2 0.514433 0.380898 0.028294 0.021481
2 0.509288 0.365554 0.034581 0.018220
2 0.514433 0.350786 0.028294 0.017453
2 0.518148 0.336977 0.032867 0.021672
2 0.515576 0.315880 0.036582 0.022248
2 0.516433 0.302647 0.038582 0.020713
2 0.510146 0.282892 0.035439 0.019755
2 0.518720 0.268891 0.038868 0.020330
2 0.510432 0.253740 0.043727 0.027618
2 0.508717 0.235136 0.031152 0.017837
2 0.514433 0.218067 0.030866 0.018028
2 0.515290 0.200997 0.026007 0.016686
2 0.513575 0.103184 0.035724 0.021481
2 0.511289 0.118719 0.033438 0.016686
2 0.517576 0.133103 0.025722 0.009781
2 0.510717 0.147488 0.032867 0.018987
2 0.511003 0.165708 0.028294 0.013809
2 0.510146 0.182969 0.034010 0.017453
2 0.148042 0.065017 0.058017 0.065784
2 0.198628 0.137131 0.030580 0.014576
2 0.153187 0.120829 0.044584 0.040276
2 0.198628 0.120829 0.030009 0.015727
2 0.134896 0.168393 0.025722 0.017069
2 0.130037 0.185846 0.031723 0.016686
2 0.125464 0.202340 0.032581 0.019563
2 0.123750 0.217108 0.026293 0.017645
2 0.128322 0.233794 0.025436 0.012275
2 0.134896 0.254699 0.031438 0.012466
7 0.412975 0.136555 0.119177 0.077292