5 0.408057 0.039236 0.372744 0.032344
1 0.212922 0.439555 0.335862 0.693178
1 0.577557 0.437787 0.337693 0.696182
0 0.869997 0.082185 0.081873 0.032520
2 0.470311 0.266172 0.128956 0.062390
2 0.458279 0.495228 0.139419 0.051785
2 0.087628 0.438671 0.110908 0.067338