1 0.431885 0.190249 0.283911 0.116874
1 0.572225 0.421845 0.571932 0.588432
1 0.346447 0.785612 0.111274 0.160373
1 0.463300 0.786807 0.101879 0.161090
1 0.567528 0.775574 0.097475 0.176147
1 0.664122 0.778681 0.090722 0.177342
1 0.761597 0.777008 0.098943 0.171606
3 0.246036 0.689771 0.073693 0.079350