0 0.869360 0.076145 0.043284 0.019169
1 0.214586 0.446042 0.328437 0.690451
1 0.570567 0.443557 0.330535 0.680156
2 0.087880 0.344693 0.104145 0.055733
2 0.445960 0.259851 0.113589 0.105254
2 0.451207 0.680689 0.118311 0.059993
5 0.318206 0.053071 0.216946 0.041356