5 0.430512 0.026334 0.289707 0.026511
0 0.871996 0.072641 0.038140 0.019088
1 0.203762 0.438141 0.363114 0.698834
1 0.576280 0.433369 0.349007 0.693178
2 0.072884 0.343408 0.117294 0.051962
2 0.450627 0.722694 0.115465 0.054790