6 0.723006 0.037051 0.105806 0.036665
0 0.902876 0.045735 0.078676 0.028753
0 0.925122 0.076997 0.056158 0.027210
2 0.153283 0.250482 0.058600 0.035315
2 0.511666 0.283288 0.064840 0.046314
2 0.501628 0.676959 0.062941 0.059051
1 0.298155 0.461791 0.357569 0.812428
1 0.658709 0.074875 0.350787 0.041683
1 0.683668 0.553454 0.400434 0.596488
3 0.677157 0.175222 0.377645 0.150328