4 0.725326 0.885367 0.063708 0.023264
4 0.193211 0.888739 0.110183 0.026972
2 0.479373 0.128793 0.064752 0.039110
2 0.063708 0.069791 0.052742 0.036076
1 0.236554 0.463924 0.393734 0.840863
1 0.659530 0.459879 0.434987 0.829063
0 0.920627 0.921106 0.048564 0.032030