0 0.927674 0.045511 0.051793 0.027431
2 0.478701 0.841230 0.067729 0.041771
2 0.088262 0.843101 0.079375 0.046550
2 0.081827 0.332086 0.071713 0.050707
2 0.467055 0.509144 0.092553 0.095594
1 0.658903 0.454697 0.404536 0.854738
1 0.238737 0.450956 0.376954 0.855569