0 0.651133 0.033650 0.124595 0.038844
0 0.831392 0.026423 0.181230 0.033875
6 0.911003 0.300587 0.168608 0.155827
6 0.641748 0.890018 0.692557 0.082882
6 0.458252 0.807588 0.383172 0.042005
7 0.158900 0.798780 0.115534 0.082882
2 0.110356 0.147696 0.170550 0.149051
1 0.245955 0.432927 0.398058 0.724255
1 0.678641 0.432249 0.467961 0.740515