2 0.262543 0.401458 0.058391 0.043467
2 0.647491 0.311555 0.070934 0.045626
2 0.635381 0.526998 0.076990 0.064525
2 0.242215 0.699244 0.075692 0.072084
1 0.789792 0.424946 0.352076 0.717873
1 0.411332 0.412527 0.360294 0.689795