0 0.951717 0.042390 0.038090 0.019125
2 0.098981 0.805402 0.077253 0.043770
2 0.508047 0.482256 0.076180 0.042981
2 0.098712 0.428036 0.064109 0.037461
1 0.242489 0.458991 0.355418 0.821964
1 0.654775 0.459976 0.350590 0.807177