1 0.328589 0.477301 0.389542 0.839428
1 0.748144 0.473308 0.385829 0.853090
12 0.758973 0.523119 0.362314 0.110340
12 0.185953 0.378100 0.081374 0.044977
12 0.740718 0.277007 0.382426 0.047919
12 0.313428 0.233081 0.343131 0.048129
12 0.745978 0.345734 0.368193 0.047079
12 0.702351 0.625683 0.239790 0.051282
12 0.311572 0.295923 0.345606 0.034258
12 0.748453 0.553384 0.342822 0.051913
12 0.316832 0.095628 0.359220 0.056116
12 0.311262 0.168348 0.334777 0.048340
12 0.760210 0.205759 0.304146 0.049811
12 0.748762 0.489912 0.351795 0.049391
12 0.749072 0.417402 0.357673 0.055065
2 0.256807 0.369273 0.054765 0.027953
2 0.853651 0.608239 0.051361 0.029844
2 0.178527 0.556747 0.055074 0.028794
2 0.188428 0.878310 0.055693 0.036570
2 0.601795 0.819252 0.049196 0.036150
2 0.576423 0.222152 0.105507 0.082808
0 0.548886 0.950399 0.098700 0.040563
6 0.870050 0.970996 0.116955 0.048129