3 0.170234 0.519662 0.244400 0.152421
4 0.764062 0.880403 0.103036 0.044524
4 0.639622 0.872928 0.081633 0.024049
2 0.168243 0.517712 0.237929 0.158271
1 0.239423 0.462788 0.433051 0.841404
1 0.676456 0.453689 0.429567 0.834579