1 0.774050 0.498405 0.315683 0.520128
1 0.379345 0.425946 0.331649 0.680845
6 0.791027 0.933313 0.145311 0.043445
2 0.234842 0.228771 0.049919 0.089473
2 0.640663 0.670211 0.052344 0.037065
2 0.641067 0.550965 0.057599 0.044509
2 0.298302 0.612487 0.141471 0.083245
3 0.765562 0.161628 0.307599 0.159350