5 0.308285 0.063343 0.088468 0.021020
5 0.104080 0.074279 0.067652 0.022014
5 0.579101 0.061639 0.130516 0.023860
0 0.852831 0.089902 0.052456 0.032098
1 0.417152 0.432609 0.253747 0.694788
1 0.181099 0.435592 0.236678 0.687970
1 0.686095 0.435592 0.253747 0.713393
2 0.339925 0.260474 0.061823 0.033376