1 0.757180 0.426721 0.323470 0.637858
1 0.399188 0.435615 0.327241 0.672274
2 0.252393 0.625483 0.031332 0.015275
2 0.254424 0.597448 0.029591 0.015081
2 0.251813 0.684648 0.030171 0.014501
2 0.252974 0.567865 0.023789 0.012374
2 0.269220 0.246906 0.026690 0.015855
2 0.618509 0.142498 0.026690 0.017015
2 0.617058 0.349575 0.042646 0.012954
2 0.253554 0.524362 0.032782 0.016241
2 0.257615 0.480472 0.026690 0.015081
2 0.618799 0.260828 0.029301 0.017015
2 0.610966 0.472738 0.026980 0.018561
2 0.252683 0.655452 0.030461 0.021075
2 0.614737 0.376837 0.028431 0.017788
2 0.612126 0.437162 0.031041 0.017788
2 0.268349 0.216551 0.029591 0.021268
2 0.262257 0.304524 0.031622 0.017401
2 0.257325 0.396365 0.029881 0.017015
2 0.620540 0.234339 0.031041 0.017015
2 0.619669 0.201469 0.029881 0.016048
2 0.261097 0.332173 0.034813 0.012954
2 0.657383 0.336620 0.027560 0.013534
2 0.252683 0.713457 0.031332 0.014695
2 0.613577 0.405452 0.031041 0.011021
2 0.258776 0.364269 0.031622 0.017981
2 0.608935 0.570186 0.031912 0.009667
2 0.609516 0.599575 0.031332 0.018368
2 0.259646 0.421114 0.030751 0.013341
2 0.255294 0.508507 0.027560 0.014888
2 0.617929 0.304138 0.043516 0.017208
2 0.608645 0.671307 0.044967 0.015081
2 0.622860 0.327146 0.063243 0.034223
2 0.618799 0.244973 0.035393 0.015661
2 0.606614 0.614462 0.033072 0.016241
2 0.611256 0.481245 0.031332 0.019335
2 0.258486 0.379930 0.034233 0.015855
2 0.260516 0.350928 0.035683 0.017015
2 0.259646 0.437742 0.031622 0.016628
2 0.266319 0.126450 0.042356 0.021268
2 0.266319 0.262181 0.033943 0.019142
2 0.614737 0.364849 0.033072 0.019142
2 0.611546 0.452436 0.033943 0.018755
2 0.252393 0.584107 0.037714 0.017401
2 0.251233 0.553558 0.036263 0.017595
2 0.270380 0.167247 0.068175 0.035576
2 0.261387 0.317865 0.037424 0.018755
2 0.617348 0.187548 0.035103 0.018561
2 0.607485 0.692382 0.066144 0.036543
2 0.257035 0.465777 0.035683 0.019335
2 0.250943 0.698956 0.033072 0.018368
2 0.612997 0.419180 0.037134 0.020108
2 0.265738 0.231052 0.041195 0.017595
2 0.615608 0.517981 0.059762 0.035383
2 0.257325 0.406419 0.036263 0.016435
2 0.608935 0.583140 0.032782 0.017015
2 0.254134 0.612336 0.032492 0.013921
2 0.615318 0.392305 0.034813 0.017788
2 0.251523 0.729118 0.036844 0.017595
2 0.617929 0.156806 0.035393 0.017595
2 0.619959 0.127997 0.038584 0.020495
2 0.249782 0.640178 0.036263 0.018561
2 0.255294 0.493813 0.035683 0.017015
2 0.617639 0.218871 0.038584 0.017401
2 0.250363 0.670147 0.037714 0.015855
2 0.617639 0.276295 0.035103 0.017595
2 0.264288 0.290990 0.038004 0.017981
2 0.609516 0.554911 0.040035 0.018755
2 0.266319 0.202049 0.038004 0.020495
2 0.605454 0.640565 0.039164 0.018175
2 0.268349 0.143658 0.032492 0.017788
2 0.268639 0.187548 0.031912 0.015275
2 0.266028 0.275909 0.041775 0.016048
2 0.259356 0.451663 0.033362 0.013728
2 0.256745 0.537896 0.036554 0.016435
2 0.605164 0.717904 0.034233 0.016048
2 0.648970 0.702243 0.030171 0.019335
2 0.610386 0.656032 0.038584 0.017595
2 0.608065 0.627997 0.027560 0.015468
2 0.612417 0.540217 0.030171 0.016241
2 0.649840 0.526682 0.026400 0.019335
2 0.611546 0.495746 0.030171 0.015275
2 0.619669 0.289637 0.036263 0.017015
2 0.619669 0.171500 0.023209 0.018368
6 0.146504 0.146365 0.119814 0.040797