0 0.066766 0.139976 0.049470 0.049940
0 0.920030 0.096038 0.024363 0.024010
2 0.338107 0.562545 0.052074 0.072509
2 0.178352 0.372149 0.031988 0.054502
2 0.154175 0.652581 0.035708 0.070588
2 0.339967 0.206242 0.031058 0.065786
2 0.336433 0.260504 0.045750 0.047299
1 0.795983 0.483553 0.179840 0.702041
1 0.607774 0.482353 0.163660 0.733733
1 0.215362 0.484514 0.185791 0.722449
1 0.401897 0.483313 0.177980 0.726050
5 0.725312 0.537335 0.029570 0.058103
12 0.240097 0.367347 0.105449 0.041537
12 0.209782 0.416567 0.148410 0.035774
12 0.210154 0.471549 0.161986 0.036975
12 0.216292 0.525330 0.169053 0.031212
12 0.215176 0.581273 0.161056 0.039136
12 0.233773 0.639856 0.137809 0.033613
12 0.216850 0.690756 0.161056 0.031212
12 0.217221 0.749580 0.167194 0.035774
12 0.218151 0.805522 0.167194 0.030012
12 0.797099 0.525810 0.141157 0.027611
12 0.784080 0.581273 0.155291 0.030012
12 0.786870 0.635774 0.159940 0.036975
12 0.793565 0.690516 0.165148 0.033373
12 0.787800 0.746218 0.170727 0.031212
12 0.785940 0.800000 0.167752 0.036975
12 0.402269 0.139736 0.169983 0.036975
12 0.418263 0.194718 0.154175 0.036014
12 0.421983 0.246098 0.141343 0.032413
12 0.407476 0.307323 0.175377 0.032413
12 0.406174 0.359904 0.176121 0.029052
12 0.408034 0.414886 0.179840 0.032413
12 0.408964 0.467467 0.174447 0.031212