0 0.840095 0.072437 0.030231 0.017310
0 0.796871 0.049106 0.050119 0.022766
2 0.465394 0.176294 0.062053 0.034807
2 0.465394 0.676764 0.059666 0.032926
2 0.095996 0.226529 0.060196 0.037065
1 0.230178 0.443838 0.308937 0.744309
1 0.595598 0.440640 0.306020 0.740734