7 0.544223 0.745945 0.107531 0.091514
0 0.912990 0.251494 0.030782 0.014342
1 0.663041 0.488305 0.554279 0.466963
2 0.483480 0.261909 0.061974 0.056684
2 0.452699 0.467133 0.058075 0.069660
6 0.667145 0.752433 0.101785 0.085539
6 0.634106 0.864265 0.467679 0.166467