2 0.253358 0.847366 0.144955 0.065415
2 0.586067 0.564983 0.053733 0.031736
3 0.373008 0.435017 0.361450 0.768998
3 0.712902 0.379102 0.318963 0.335924
1 0.713527 0.579879 0.308654 0.059585
1 0.373946 0.863126 0.382381 0.080959