2 0.142671 0.523380 0.056807 0.039583
2 0.144629 0.816435 0.073457 0.048611
2 0.541952 0.312037 0.056154 0.036574
2 0.540320 0.618056 0.059419 0.043056
2 0.141365 0.169676 0.058439 0.044907
1 0.318968 0.451620 0.406464 0.768981
1 0.734900 0.449537 0.422788 0.766898