2 0.469199 0.555709 0.067843 0.043143
2 0.472185 0.721947 0.077612 0.043934
2 0.129172 0.388878 0.064043 0.036612
2 0.138670 0.769048 0.073270 0.040570
2 0.124288 0.846032 0.068385 0.045320
1 0.254274 0.491391 0.303935 0.789630
1 0.626866 0.485454 0.356309 0.809420