2 0.140786 0.235847 0.069466 0.056984
2 0.421177 0.383807 0.065925 0.060074
2 0.203170 0.389740 0.215647 0.145241
2 0.685382 0.647960 0.073681 0.073300
2 0.482044 0.603832 0.171472 0.136094
1 0.255606 0.438443 0.278705 0.725464
1 0.526555 0.434981 0.248693 0.725958
1 0.803743 0.431397 0.267746 0.733869