5 0.791133 0.043582 0.094607 0.026217
2 0.197441 0.720123 0.076782 0.053796
2 0.601920 0.482465 0.085923 0.058563
3 0.749543 0.314607 0.329525 0.192714
1 0.763711 0.424242 0.392139 0.732720
1 0.346892 0.433435 0.394424 0.715696