1 0.222726 0.639640 0.235100 0.386225
1 0.443597 0.623075 0.220252 0.354548
1 0.686946 0.443476 0.272221 0.732345
0 0.935451 0.027899 0.028872 0.013514
0 0.498453 0.032549 0.092390 0.033566
0 0.642813 0.051584 0.083935 0.071200
2 0.132192 0.525429 0.025779 0.014385
2 0.358631 0.469340 0.032172 0.017146
2 0.135698 0.698344 0.036502 0.020198
2 0.140441 0.769689 0.033615 0.016274
2 0.581976 0.247602 0.040833 0.021505
2 0.581151 0.188172 0.036915 0.021360
2 0.591875 0.363412 0.041864 0.023104
2 0.127243 0.554926 0.033203 0.018163
2 0.361518 0.556234 0.037946 0.022668
2 0.368117 0.747748 0.040421 0.021505
2 0.592081 0.511189 0.047845 0.025283
2 0.580738 0.158094 0.040214 0.021941
2 0.586513 0.304127 0.037534 0.021505
2 0.364199 0.613920 0.039596 0.021505
2 0.132192 0.640802 0.041452 0.023976
2 0.594349 0.438681 0.046401 0.021360
2 0.164364 0.479366 0.129717 0.090381
2 0.595793 0.585004 0.040008 0.021651
2 0.363374 0.644435 0.040008 0.021360
2 0.575995 0.126271 0.040833 0.021651
2 0.130955 0.584568 0.034234 0.014967
2 0.133842 0.612322 0.038358 0.019907
2 0.367292 0.689480 0.043514 0.021069
2 0.599505 0.688317 0.040627 0.021360
2 0.599505 0.626417 0.044339 0.020634
2 0.601774 0.719413 0.046195 0.025429
2 0.602186 0.764167 0.041452 0.022813
2 0.372448 0.791340 0.047226 0.021796
7 0.169107 0.819239 0.081254 0.049404
3 0.320891 0.268817 0.463188 0.339582