0 0.763365 0.415793 0.033107 0.032852
0 0.800000 0.077380 0.055088 0.021571
2 0.470285 0.480902 0.044233 0.028696
2 0.475712 0.223827 0.045862 0.059964
7 0.302849 0.677617 0.097965 0.069859
1 0.269471 0.385118 0.289824 0.546012
1 0.603528 0.246586 0.299050 0.256085
1 0.635821 0.754601 0.283582 0.098555
1 0.599729 0.521472 0.304206 0.256877