2 0.588062 0.604880 0.051927 0.036694
2 0.211991 0.081710 0.063704 0.064498
2 0.217077 0.256667 0.059690 0.063363
2 0.578158 0.179686 0.066649 0.059958
1 0.726445 0.438056 0.335118 0.745981
1 0.359475 0.433138 0.336456 0.751466