2 0.142212 0.613888 0.037246 0.028306
2 0.454853 0.757187 0.049097 0.030517
2 0.458804 0.553737 0.052483 0.030517
2 0.457675 0.421937 0.043454 0.026537
2 0.461625 0.299867 0.036117 0.027421
2 0.139955 0.292791 0.044582 0.036267
2 0.138262 0.173375 0.053047 0.053516
2 0.462190 0.179124 0.049661 0.049978
0 0.861738 0.096860 0.062641 0.031402
6 0.826185 0.914197 0.081264 0.031402
1 0.276524 0.453782 0.316027 0.753649
1 0.646727 0.519239 0.423251 0.751880