6 0.198902 0.296909 0.193834 0.359823
6 0.189611 0.639073 0.202280 0.290839
6 0.524071 0.065949 0.841639 0.101269
6 0.886402 0.534216 0.134713 0.641004
2 0.298564 0.438742 0.113176 0.105132
1 0.565034 0.468543 0.574324 0.782837