3 0.260000 0.193230 0.244110 0.196132
3 0.497534 0.788781 0.504658 0.346615
1 0.561918 0.340812 0.875616 0.551451
12 0.570685 0.524178 0.777534 0.043907
12 0.549589 0.467698 0.738630 0.036557
12 0.581644 0.406770 0.785205 0.037137
12 0.572055 0.357447 0.792329 0.044101
12 0.577260 0.304062 0.790685 0.044101
12 0.681370 0.244487 0.600000 0.040426
12 0.682192 0.186847 0.596164 0.034043
12 0.684384 0.135397 0.592055 0.042940