5 0.502046 0.013966 0.796664 0.019922
1 0.264086 0.461696 0.380862 0.861984
1 0.674850 0.449784 0.392823 0.851304
2 0.491029 0.182994 0.066100 0.048675
2 0.093170 0.716985 0.072081 0.051756
3 0.274788 0.359417 0.388102 0.240296
6 0.031476 0.283015 0.062952 0.052988