2 0.352337 0.351902 0.035057 0.034601
2 0.594547 0.342086 0.031516 0.052025
2 0.594901 0.181104 0.023725 0.040491
7 0.591006 0.701350 0.153329 0.105767
1 0.461048 0.370061 0.227337 0.514110
1 0.706091 0.365399 0.224150 0.509693