1 0.629019 0.438038 0.391534 0.789742
1 0.233822 0.432781 0.367928 0.782574
6 0.874847 0.172666 0.049044 0.018796
6 0.889906 0.206913 0.095849 0.019752
0 0.923280 0.031857 0.032967 0.019592
2 0.562475 0.230328 0.227717 0.158012
3 0.467440 0.878464 0.595849 0.148136