7 0.855372 0.914841 0.168388 0.114134
2 0.181818 0.247350 0.183884 0.124735
1 0.408058 0.436042 0.713326 0.690813
6 0.276343 0.047703 0.135847 0.026855
6 0.462810 0.062191 0.273760 0.032862
6 0.853306 0.401413 0.210744 0.757951
6 0.740186 0.860071 0.433368 0.157951