0 0.945953 0.035353 0.038182 0.017860
2 0.448508 0.437488 0.053509 0.032775
2 0.069642 0.584607 0.048131 0.055238
2 0.074482 0.157061 0.054853 0.041981
1 0.219952 0.435831 0.343103 0.690849
1 0.596397 0.434911 0.345254 0.693611