1 0.450772 0.562398 0.562787 0.216627
1 0.491030 0.345227 0.500000 0.202318
6 0.470171 0.694802 0.469128 0.058866
6 0.798290 0.659482 0.154360 0.035682
6 0.126617 0.597537 0.094910 0.032241
2 0.255111 0.197428 0.233208 0.173882
2 0.201710 0.542836 0.077806 0.053070
5 0.606383 0.083318 0.423029 0.068828