1 0.428238 0.439066 0.294393 0.647881
1 0.752003 0.530347 0.270027 0.413536
3 0.733311 0.790944 0.353138 0.108141
3 0.755340 0.218690 0.262684 0.200626
2 0.672230 0.364403 0.171896 0.101156
2 0.658211 0.442437 0.063752 0.039499
2 0.658879 0.644990 0.058745 0.038536
2 0.330107 0.257225 0.071762 0.042630