11 0.760576 0.430922 0.119774 0.167695
6 0.039843 0.399140 0.050787 0.072350
1 0.266970 0.466816 0.438392 0.726491
1 0.738318 0.270705 0.448598 0.356515
1 0.733645 0.641428 0.442696 0.289400
3 0.758239 0.431296 0.112887 0.165265
0 0.948475 0.071041 0.026439 0.028417