3 0.330317 0.776201 0.167421 0.129302
3 0.676753 0.610927 0.302319 0.160996
3 0.845023 0.436905 0.135464 0.151857
0 0.921097 0.048221 0.049491 0.025277
2 0.565894 0.395878 0.087104 0.056387
2 0.538744 0.713786 0.076640 0.055415
2 0.563914 0.074859 0.083993 0.063193
1 0.702489 0.444293 0.361425 0.806144
1 0.294118 0.422710 0.369061 0.743729