0 0.910952 0.069947 0.034556 0.019231
2 0.143009 0.686652 0.057948 0.038084
2 0.492291 0.218514 0.055290 0.038084
2 0.497076 0.689668 0.056353 0.043741
2 0.138490 0.459653 0.073897 0.049397
2 0.190324 0.138575 0.190590 0.150264
1 0.268474 0.438160 0.323764 0.707579
1 0.631047 0.443627 0.324296 0.687029