1 0.517301 0.240882 0.515225 0.226975
1 0.506574 0.587772 0.398962 0.379690
7 0.295156 0.294149 0.066436 0.098137
7 0.293426 0.294149 0.067474 0.100499
7 0.506574 0.689583 0.091696 0.071110
7 0.602076 0.260562 0.097578 0.073996
7 0.565052 0.819732 0.134948 0.103123
6 0.618685 0.737864 0.191349 0.086591
6 0.815917 0.274731 0.078201 0.114143
0 0.842907 0.062451 0.097232 0.029389
0 0.674740 0.844135 0.055017 0.040934