0 0.866251 0.062275 0.084546 0.024044
2 0.466736 0.575619 0.080735 0.047367
2 0.068607 0.114691 0.096327 0.051695
1 0.223493 0.434239 0.401594 0.771339
1 0.618503 0.450349 0.389120 0.729262
3 0.217949 0.496994 0.429660 0.215436