2 0.546824 0.337520 0.055010 0.040940
2 0.150950 0.535706 0.053045 0.034427
2 0.144401 0.757153 0.056974 0.033496
2 0.143746 0.214003 0.059594 0.041405
1 0.327439 0.443824 0.404715 0.764829
1 0.743615 0.441731 0.429273 0.756688