2 0.628381 0.365046 0.093823 0.080683
2 0.684474 0.572930 0.053422 0.039159
0 0.785643 0.051774 0.042738 0.037057
7 0.629716 0.365046 0.095159 0.078318
1 0.788648 0.418134 0.261770 0.649671
1 0.500501 0.425756 0.260768 0.669908