1 0.313528 0.480025 0.394881 0.837244
1 0.733394 0.483196 0.387264 0.833016
3 0.586533 0.305221 0.084704 0.032551
3 0.301645 0.288734 0.396405 0.078419
3 0.309567 0.166350 0.373248 0.176073
0 0.886045 0.042908 0.130408 0.040583
0 0.703839 0.022828 0.048446 0.023462
2 0.584400 0.304375 0.085923 0.032763
2 0.579525 0.708941 0.052407 0.028958
2 0.578915 0.491017 0.061548 0.031917
2 0.215113 0.394208 0.203534 0.111604
12 0.627971 0.246460 0.152041 0.052420
12 0.401584 0.346438 0.173065 0.047347
12 0.722425 0.173325 0.331200 0.053266
12 0.316575 0.624181 0.352224 0.056436
12 0.316271 0.695413 0.350396 0.057493
12 0.319622 0.770239 0.340646 0.058339
12 0.399756 0.409216 0.165143 0.047136
12 0.313833 0.553794 0.351310 0.059184
12 0.315052 0.479814 0.363498 0.057705
12 0.320536 0.842317 0.339122 0.056225
12 0.727605 0.106109 0.337599 0.056648
7 0.776356 0.257662 0.127666 0.078208