1 0.199109 0.439314 0.193079 0.739186
1 0.391532 0.446614 0.195045 0.755065
1 0.617250 0.464683 0.212741 0.749954
1 0.813737 0.463588 0.214314 0.745209
2 0.115087 0.133601 0.026085 0.034130
2 0.535195 0.325789 0.037620 0.031940
2 0.523922 0.774594 0.029755 0.049279
2 0.717263 0.612521 0.024905 0.041613
0 0.933150 0.090892 0.023332 0.022449
6 0.922664 0.650484 0.058461 0.026465