1 0.211535 0.384580 0.155729 0.643204
1 0.378800 0.400556 0.174903 0.642047
1 0.576461 0.414216 0.162744 0.617504
1 0.745752 0.426025 0.166952 0.642973
2 0.513952 0.133133 0.034762 0.068766
2 0.304910 0.513082 0.040062 0.272517
2 0.513796 0.219495 0.040218 0.050243
2 0.677007 0.709887 0.040998 0.223200
0 0.892440 0.105812 0.030865 0.045844