2 0.207353 0.316532 0.068765 0.046831
2 0.208410 0.814745 0.033589 0.040624
2 0.571013 0.626105 0.067178 0.040436
2 0.572071 0.362422 0.067178 0.037051
2 0.193864 0.116043 0.052632 0.046831
1 0.336419 0.455896 0.335361 0.752492
1 0.712510 0.449502 0.349907 0.772804