1 0.192708 0.482422 0.261458 0.793945
1 0.482292 0.487305 0.281250 0.784180
9 0.896875 0.436523 0.108333 0.184570
9 0.783333 0.374023 0.090625 0.304688
9 0.878125 0.669922 0.164583 0.253906
9 0.892708 0.291992 0.069792 0.065430
0 0.643750 0.095703 0.025000 0.021484
2 0.073958 0.470703 0.023958 0.026367
2 0.070833 0.249023 0.023958 0.025391
2 0.077083 0.760742 0.029167 0.027344
2 0.361458 0.305664 0.038542 0.031250