0 0.935000 0.079371 0.025000 0.025833
2 0.591500 0.556720 0.052000 0.052789
2 0.229500 0.637589 0.053250 0.059154
2 0.228750 0.280794 0.051500 0.058779
1 0.705500 0.449644 0.291000 0.585174
1 0.344750 0.450393 0.288500 0.601647