2 0.181507 0.632705 0.072407 0.034736
2 0.180855 0.373777 0.067189 0.032779
2 0.179550 0.324976 0.073222 0.039261
2 0.176614 0.579990 0.084638 0.039017
2 0.176941 0.504770 0.068004 0.033635
2 0.203196 0.214530 0.123777 0.056629
2 0.173353 0.454623 0.078767 0.036815
2 0.183138 0.269080 0.061644 0.031800
2 0.185584 0.685421 0.073059 0.038038
6 0.736954 0.458659 0.191292 0.245352
3 0.731246 0.756605 0.200750 0.349927
3 0.735975 0.190802 0.198630 0.294765
3 0.381279 0.847603 0.183953 0.183464
1 0.384051 0.435543 0.489237 0.607265