0 0.812459 0.034002 0.044194 0.019936
3 0.715753 0.768102 0.216895 0.306262
3 0.715101 0.216120 0.207599 0.315558
3 0.280007 0.087451 0.171070 0.081947
3 0.271037 0.847603 0.273810 0.154110
1 0.367091 0.423801 0.484018 0.600049
6 0.714449 0.494374 0.195205 0.220890